masse;localisation
38;room_102
38;room_102
37;room_102
36;space_101
35;room_102
34;space_101
33;space_101
33;room_102
33;room_102
32;room_100
32;room_102
31;space_101
30;room_100
29;room_100
28;room_102
27;space_101
26;room_102
26;room_102
26;room_102
26;room_102
26;room_102
25;room_100
25;room_100
25;space_101
25;space_101
25;room_102
24;space_101
23;space_101
23;room_102
22;room_100
22;room_102
22;room_102
21;room_100
21;room_100
21;room_102
20;room_100
20;room_100
20;room_100
20;space_101
20;room_102
20;room_102
19;space_101
19;room_102
19;room_102
19;room_102
18;room_102
17;room_100
17;room_102
17;room_102
17;room_102
17;room_102
16;room_100
16;room_100
16;space_101
16;space_101
16;room_102
16;room_102
16;room_102
15;room_100
15;room_100
15;room_100
15;room_100
15;space_101
15;room_102
15;room_102
15;room_102
15;room_102
15;room_102
14;room_100
14;space_101
14;space_101
14;room_102
14;room_102
14;room_102
13;space_101
13;room_102
13;room_102
12;room_100
12;room_100
12;room_100
12;space_101
12;space_101
12;room_102
12;room_102
12;room_102
12;room_102
12;room_102
12;room_102
11;room_100
11;room_100
11;space_101
11;space_101
11;room_102
11;room_102
11;room_102
11;room_102
10;room_100
10;space_101
10;space_101
10;space_101
10;room_102
10;room_102
10;room_102
9;room_100
9;room_100
9;room_100
9;space_101
9;space_101
9;space_101
9;space_101
9;room_102
9;room_102
9;room_102
9;room_102
9;room_102
9;room_102
9;room_102
9;room_102
9;room_102
8;room_100
8;room_100
8;space_101
8;space_101
8;space_101
8;space_101
8;space_101
8;room_102
8;room_102
8;room_102
8;room_102
8;room_102
8;room_102
8;room_102
8;room_102
8;room_102
7;room_100
7;room_100
7;space_101
7;space_101
7;space_101
7;space_101
7;space_101
7;room_102
7;room_102
7;room_102
7;room_102
7;room_102
7;room_102
6;space_101
6;space_101
6;space_101
6;room_102
6;room_102
6;room_102
6;room_102
6;room_102
6;room_102
6;room_102
6;room_102
6;room_102
5;room_100
5;space_101
5;space_101
5;space_101
5;space_101
5;space_101
5;space_101
5;room_102
5;room_102
5;room_102
5;room_102
5;room_102
5;room_102
4;space_101
4;space_101
4;space_101
4;space_101
4;space_101
4;space_101
4;room_102
4;room_102
4;room_102
4;room_102
3;space_101
3;space_101
3;space_101
3;space_101
3;room_102
3;room_102
3;room_102
3;room_102
3;room_102
3;room_102
2;space_101
2;space_101
2;space_101
2;room_102
2;room_102
2;room_102
