Production;Fonction
Production Locale;préparation
Production Locale;préparation
Production Locale;préparation
Importation gauloise;préparation
Importation gauloise;préparation
Importation gauloise;préparation
Importation gauloise;préparation
Production Locale;préparation
Production Locale;préparation
Production Locale;préparation
Production Locale;préparation
Production Locale;préparation
Production Locale;préparation
Production Locale;préparation
Production Locale;préparation
Production Locale;préparation
Production Locale;préparation
Production Locale;préparation
Production Locale;préparation
Production Locale;préparation
Production Locale;préparation
Production Locale;préparation
Production Locale;préparation
Production Locale;préparation
Production Locale;préparation
Production Locale;préparation
Production Locale;préparation
Production Locale;préparation
Production Locale;préparation
Production Locale;préparation
Production Locale;préparation
Production Locale;préparation
Importation gauloise;préparation
Production Locale;préparation
Production Locale;préparation
Importation gauloise;Service
Importation gauloise;Service
Importation gauloise;Service
Importation gauloise;Service
Importation gauloise;Service
Importation gauloise;Service
Importation gauloise;Service
Importation gauloise;Service
Importation gauloise;Service
Importation gauloise;Service
Importation gauloise;Service
Importation gauloise;Service
Importation gauloise;Service
Importation gauloise;Service
Importation gauloise;Service
Importation gauloise;Service
Importation gauloise;Service
Importation gauloise;Service
Importation gauloise;Service
Importation gauloise;Service
Importation gauloise;Service
Importation gauloise;Service
Importation gauloise;Service
Importation gauloise;Service
Importation gauloise;Service
Importation gauloise;Service
Importation gauloise;Service
Importation gauloise;Service
Importation gauloise;Service
Importation gauloise;Service
Importation gauloise;Service
Importation gauloise;Service
Importation gauloise;Service
Importation gauloise;Service
Importation gauloise;Service
Importation gauloise;Service
Importation gauloise;Service
Importation gauloise;Service
Importation gauloise;Service
Importation gauloise;Service
Importation gauloise;Service
Importation gauloise;Service
Importation gauloise;Service
Importation gauloise;Service
Importation gauloise;Service
Importation gauloise;Service
Importation gauloise;Service
Importation gauloise;Service
Importation gauloise;Service
Importation gauloise;Service
Importation gauloise;Service
Importation gauloise;Service
Importation gauloise;Service
Importation gauloise;Service
Importation gauloise;Service
Importation gauloise;Service
Importation gauloise;Service
Importation gauloise;Service
Importation gauloise;Service
Importation gauloise;Service
Importation gauloise;Service
Importation gauloise;Service
Importation gauloise;Service
Importation gauloise;Service
Importation gauloise;Service
Importation gauloise;Service
Importation gauloise;Service
Importation gauloise;Service
Importation gauloise;Service
Importation gauloise;Service
Importation gauloise;Service
Importation gauloise;Service
Importation gauloise;Service
Importation gauloise;Service
Importation gauloise;Service
Importation gauloise;Service
Importation gauloise;Service
Importation gauloise;Service
Importation gauloise;Service
Importation gauloise;Service
Importation gauloise;Service
Importation gauloise;Service
Importation gauloise;Service
Importation gauloise;Service
Importation gauloise;Service
Importation gauloise;Service
Importation gauloise;Service
Importation gauloise;Service
Importation gauloise;Service
Importation gauloise;Service
Importation gauloise;Service
Importation gauloise;Service
Importation gauloise;Service
Importation gauloise;Service
Importation gauloise;Service
Importation gauloise;Service
Importation gauloise;Service
Importation gauloise;Service
Importation gauloise;Service
Importation gauloise;Service
Importation gauloise;Service
Importation gauloise;Service
Importation gauloise;Service
Importation gauloise;Service
Importation gauloise;Service
Importation gauloise;Service
Importation gauloise;Service
Importation gauloise;Service
Importation gauloise;Service
Importation gauloise;Service
Importation gauloise;Service
Importation gauloise;Service
Importation gauloise;Service
Importation gauloise;Service
Importation gauloise;Service
Importation gauloise;Service
Importation gauloise;Service
Importation gauloise;Service
Importation gauloise;Service
Importation gauloise;Service
Importation gauloise;Service
Importation gauloise;Service
Importation gauloise;Service
Importation gauloise;Service
Importation gauloise;Service
Importation gauloise;Service
Importation gauloise;Service
Importation gauloise;Service
Importation gauloise;Service
Importation gauloise;Service
Importation gauloise;Service
Importation gauloise;Service
Importation gauloise;Service
Importation gauloise;Service
Importation gauloise;Service
Importation gauloise;Service
Importation gauloise;Service
Importation gauloise;Service
Importation gauloise;Service
Importation gauloise;Service
Importation gauloise;Service
Importation gauloise;Service
Importation gauloise;Service
Importation gauloise;Service
Importation gauloise;Service
Importation gauloise;Service
Importation gauloise;Service
Importation gauloise;Service
Importation gauloise;Service
Importation gauloise;Service
Importation gauloise;Service
Importation gauloise;Service
Importation gauloise;Service
Importation gauloise;Service
Importation gauloise;Service
Importation gauloise;Service
Importation gauloise;Service
Importation gauloise;Service
Importation gauloise;Service
Importation gauloise;Service
Importation gauloise;Service
Importation gauloise;Service
Importation gauloise;Service
Importation gauloise;Service
Importation gauloise;Service
Importation gauloise;Service
Importation gauloise;Service
Importation gauloise;Service
Importation gauloise;Service
Importation gauloise;Service
Importation gauloise;Service
Importation gauloise;Service
Importation gauloise;Service
Importation gauloise;Service
Importation gauloise;Service
Importation gauloise;Service
Importation gauloise;Service
Importation gauloise;Service
Importation gauloise;Service
Importation gauloise;Service
Importation gauloise;Service
Importation gauloise;Service
Importation gauloise;Service
Importation gauloise;Service
Importation gauloise;Service
Importation gauloise;Service
Importation gauloise;Service
Importation gauloise;Service
Importation gauloise;Service
Importation gauloise;Service
Importation gauloise;Service
Importation gauloise;Service
Importation gauloise;Service
Importation gauloise;Service
Importation gauloise;Service
Importation gauloise;Service
Importation gauloise;Service
Importation gauloise;Service
Importation gauloise;Service
Importation gauloise;Service
Importation gauloise;Service
Importation gauloise;Service
Importation gauloise;Service
Importation gauloise;Service
Importation gauloise;Service
Importation gauloise;Service
Importation gauloise;Service
Importation gauloise;Service
Importation gauloise;Service
Importation gauloise;Service
Importation gauloise;Service
Importation gauloise;Service
Importation gauloise;Service
Importation gauloise;Service
Importation gauloise;Service
Importation gauloise;Service
Importation gauloise;Service
Importation gauloise;Service
Importation gauloise;Service
Importation gauloise;Service
Importation gauloise;Service
Importation gauloise;Service
Importation gauloise;Service
Importation gauloise;Service
Importation gauloise;Service
Importation gauloise;Service
Importation gauloise;Service
Importation gauloise;Service
Importation gauloise;Service
Importation gauloise;Service
Importation gauloise;Service
Importation gauloise;Service
Importation gauloise;Service
Importation gauloise;Service
Importation gauloise;Service
Importation gauloise;Service
Importation gauloise;Service
Importation gauloise;Service
Importation gauloise;Service
Importation gauloise;Service
Importation gauloise;Service
Importation gauloise;Service
Importation gauloise;Service
Importation gauloise;Service
Importation gauloise;Service
Importation gauloise;Service
Importation gauloise;Service
Importation gauloise;Service
Importation gauloise;Service
Importation gauloise;Service
Importation gauloise;Service
Importation gauloise;Service
Importation gauloise;Service
Importation gauloise;Service
Importation gauloise;Service
Importation gauloise;Service
Importation gauloise;Service
Importation gauloise;Service
Importation gauloise;Service
Importation gauloise;Service
Importation gauloise;Service
Importation gauloise;Service
Importation gauloise;Service
Importation gauloise;Service
Importation gauloise;Service
Importation gauloise;Service
Importation gauloise;Service
Importation gauloise;Service
Importation gauloise;Service
Importation gauloise;Service
Importation gauloise;Service
Importation gauloise;Service
Importation gauloise;Service
Importation gauloise;Service
Importation gauloise;Service
Importation gauloise;Service
Importation gauloise;Service
Importation gauloise;Service
Importation gauloise;Service
Importation gauloise;Service
Importation gauloise;Service
Importation gauloise;Service
Importation gauloise;Service
Importation gauloise;Service
Importation gauloise;Service
Importation gauloise;Service
Importation gauloise;Service
Importation gauloise;Service
Importation gauloise;Service
Importation gauloise;Service
Importation gauloise;Service
Importation gauloise;Service
Importation gauloise;Service
Importation gauloise;Service
Importation gauloise;Service
Importation gauloise;Service
Importation gauloise;Service
Importation gauloise;Service
Importation gauloise;Service
Importation gauloise;Service
Importation gauloise;Service
Importation gauloise;Service
Importation gauloise;Service
Importation gauloise;Service
Importation gauloise;Service
Importation gauloise;Service
Importation gauloise;Service
Importation gauloise;Service
Importation gauloise;Service
Importation gauloise;Service
Importation gauloise;Service
Importation gauloise;Service
Importation gauloise;Service
Importation gauloise;Service
Importation gauloise;Service
Importation gauloise;Service
Importation gauloise;Service
Importation gauloise;Service
Importation gauloise;Service
Importation gauloise;Service
Importation gauloise;Service
Importation gauloise;Service
Importation gauloise;Service
Importation gauloise;Service
Importation gauloise;Service
Importation gauloise;Service
Importation gauloise;Service
Importation gauloise;Service
Importation gauloise;Service
Importation gauloise;Service
Importation gauloise;Service
Importation gauloise;Service
Importation gauloise;Service
Importation gauloise;Service
Importation gauloise;Service
Importation gauloise;Service
Importation gauloise;Service
Importation gauloise;Service
Importation gauloise;Service
Importation gauloise;Service
Importation gauloise;Service
Importation gauloise;Service
Importation gauloise;Service
Importation gauloise;Service
Importation gauloise;Service
Importation gauloise;Service
Importation gauloise;Service
Importation gauloise;Service
Importation gauloise;Service
Importation gauloise;Service
Importation gauloise;Service
Importation gauloise;Service
Importation gauloise;Service
Importation gauloise;Service
Importation gauloise;Service
Importation gauloise;Service
Importation gauloise;Service
Importation gauloise;Service
Importation gauloise;Service
Importation gauloise;Service
Importation gauloise;Service
Importation gauloise;Service
Importation gauloise;Service
Importation gauloise;Service
Importation gauloise;Service
Importation gauloise;Service
Importation gauloise;Service
Importation gauloise;Service
Importation gauloise;Service
Importation gauloise;Service
Importation gauloise;Service
Importation gauloise;Service
Importation gauloise;Service
Importation méditerranéenne;Service
Importation méditerranéenne;Service
Importation méditerranéenne;Service
Importation méditerranéenne;Service
Importation méditerranéenne;Service
Importation méditerranéenne;Service
Importation méditerranéenne;Service
Importation méditerranéenne;Service
Importation méditerranéenne;Service
Importation méditerranéenne;Service
Importation méditerranéenne;Service
Importation méditerranéenne;Service
Importation méditerranéenne;Service
Importation méditerranéenne;Service
Importation méditerranéenne;Service
Importation méditerranéenne;Service
Importation méditerranéenne;Service
Importation méditerranéenne;Service
Importation méditerranéenne;Service
Importation méditerranéenne;Service
Importation méditerranéenne;Service
Importation méditerranéenne;Service
Importation méditerranéenne;Service
Importation méditerranéenne;Service
Importation méditerranéenne;Service
Importation méditerranéenne;Service
Importation méditerranéenne;Service
Production Locale;Service
Production Locale;Service
Production Locale;Service
Production Locale;Service
Production Locale;Service
Production Locale;Service
Production Locale;Service
Production Locale;Service
Production Locale;Service
Production Locale;Service
Production Locale;Service
Production Locale;Service
Production Locale;Service
Production Locale;Service
Production Locale;Service
Production Locale;Service
Production Locale;Service
Production Locale;Service
Production Locale;Service
Production Locale;Service
Production Locale;Service
Production Locale;Service
Production Locale;Service
Production Locale;Service
Production Locale;Service
Production Locale;Service
Production Locale;Service
Production Locale;Service
Production Locale;Service
Production Locale;Service
Production Locale;Service
Production Locale;Service
Production Locale;Service
Production Locale;Service
Production Locale;Service
Production Locale;Service
Production Locale;Service
Production Locale;Service
Production Locale;Service
Production Locale;Service
Production Locale;Service
Production Locale;Service
Production Locale;Service
Production Locale;Service
Production Locale;Service
Production Locale;Service
Production Locale;Service
Production Locale;Service
Production Locale;Service
Production Locale;Service
Production Locale;Service
Production Locale;Service
Production Locale;Service
Production Locale;Service
Production Locale;Service
Production Locale;Service
Production Locale;Service
Production Locale;Service
Production Locale;Service
Production Locale;Service
Production Locale;Service
Production Locale;Service
Production Locale;Service
Production Locale;Service
Production Locale;Service
Production Locale;Service
Production Locale;Service
Production Locale;Service
Production Locale;Service
Production Locale;Service
Production Locale;Service
Production Locale;Service
Production Locale;Service
Production Locale;Service
Production Locale;Service
Production Locale;Service
Production Locale;Service
Production Locale;Service
Production Locale;Service
Production Locale;Service
Production Locale;Service
Production Locale;Service
Production Locale;Service
Production Locale;Service
Production Locale;Service
Production Locale;Service
Production Locale;Service
Production Locale;Service
Production Locale;Service
Production Locale;Service
Production Locale;Service
Production Locale;Service
Production Locale;Service
Production Locale;Service
Production Locale;Service
Production Locale;Service
Production Locale;Service
Production Locale;Service
Production Locale;Service
Production Locale;Service
Production Locale;Service
Production Locale;Service
Production Locale;Service
Production Locale;Service
Production Locale;Service
Production Locale;Service
Production Locale;Service
Production Locale;Service
Production Locale;Service
Production Locale;Service
Production Locale;Service
Production Locale;Service
Production Locale;Service
Production Locale;Service
Production Locale;Service
Production Locale;Service
Production Locale;Service
Production Locale;Service
Production Locale;Service
Production Locale;Service
Production Locale;Service
Production Locale;Service
Production Locale;Service
Production Locale;Service
Production Locale;Service
Production Locale;Service
Production Locale;Service
Production Locale;Service
Production Locale;Service
Production Locale;Service
Production Locale;Service
Production Locale;Service
Production Locale;Service
Production Locale;Service
Production Locale;Service
Production Locale;Service
Production Locale;Service
Production Locale;Service
Production Locale;Service
Production Locale;Service
Production Locale;Service
Production Locale;Service
Production Locale;Service
Production Locale;Service
Production Locale;Service
Production Locale;Service
Production Locale;Service
Production Locale;Service
Production Locale;Service
Production Locale;Service
Production Locale;Service
Production Locale;Service
Production Locale;Service
Production Locale;Service
Production Locale;Service
Production Locale;Service
Production Locale;Service
Production Locale;Service
Production Locale;Service
Production Locale;Service
Production Locale;Service
Production Locale;Service
Production Locale;Service
Production Locale;Service
Production Locale;Service
Production Locale;Service
Production Locale;Service
Production Locale;Service
Production Locale;Service
Production Locale;Service
Production Locale;Service
Production Locale;Service
Production Locale;Service
Production Locale;Service
Production Locale;Service
Production Locale;Service
Production Locale;Service
Production Locale;Service
Production Locale;Service
Production Locale;Service
Production Locale;Service
Production Locale;Service
Production Locale;Service
Production Locale;Service
Production Locale;Service
Production Locale;Service
Production Locale;Service
Production Locale;Service
Production Locale;Service
Production Locale;Service
Production Locale;Service
Production Locale;Service
Production Locale;Service
Production Locale;Service
Production Locale;Service
Production Locale;Service
Production Locale;Service
Production Locale;Service
Production Locale;Service
Production Locale;Service
Production Locale;Service
Production Locale;Service
Production Locale;Service
Production Locale;Service
Production Locale;Service
Production Locale;Service
Production Locale;Service
Production Locale;Service
Production Locale;Service
Production Locale;Service
Production Locale;Service
Production Locale;Service
Production Locale;Service
Production Locale;Service
Production Locale;Service
Production Locale;Service
Production Locale;Service
Production Locale;Service
Production Locale;Service
Production Locale;Service
Production Locale;Service
Production Locale;Service
Production Locale;Service
Production Locale;Service
Production Locale;Service
Production Locale;Service
Production Locale;Service
Production Locale;Service
Production Locale;Service
Production Locale;Service
Production Locale;Service
Production Locale;Service
Production Locale;Service
Production Locale;Service
Production Locale;Service
Production Locale;Service
Production Locale;Service
Production Locale;Service
Production Locale;Service
Production Locale;Service
Production Locale;Service
Production Locale;Service
Production Locale;Service
Production Locale;Service
Production Locale;Service
Production Locale;Service
Production Locale;Service
Production Locale;Service
Production Locale;Service
Production Locale;Service
Production Locale;Service
Production Locale;Service
Production Locale;Service
Production Locale;Service
Production Locale;Service
Production Locale;Service
Production Locale;Service
Production Locale;Service
Production Locale;Service
Production Locale;Service
Production Locale;Service
Production Locale;Service
Production Locale;Service
Production Locale;Service
Production Locale;Service
Production Locale;Service
Production Locale;Service
Production Locale;Service
Production Locale;Service
Production Locale;Service
Production Locale;Service
Production Locale;Service
Production Locale;Service
Production Locale;Service
Production Locale;Service
Production Locale;Service
Production Locale;Service
Production Locale;Service
Production Locale;Service
Production Locale;Service
Production Locale;Service
Production Locale;Service
Production Locale;Service
Production Locale;Service
Production Locale;Service
Production Locale;Service
Production Locale;Service
Production Locale;Service
Production Locale;Service
Production Locale;Service
Production Locale;Service
Production Locale;Service
Production Locale;Service
Production Locale;Service
Production Locale;Service
Production Locale;Service
Production Locale;Service
Production Locale;Service
Production Locale;Service
Production Locale;Service
Production Locale;Service
Production Locale;Service
Production Locale;Service
Production Locale;Service
Production Locale;Service
Production Locale;Service
Production Locale;Service
Production Locale;Service
Production Locale;Service
Production Locale;Service
Production Locale;Service
Production Locale;Service
Production Locale;Service
Production Locale;Service
Production Locale;Service
Production Locale;Service
Production Locale;Service
Production Locale;Service
Production Locale;Service
Production Locale;Service
Production régionale;Service
Production régionale;Service
Production régionale;Service
Production régionale;Service
Production régionale;Service
Production régionale;Service
Production régionale;Service
Production régionale;Service
Production régionale;Service
Production régionale;Service
Production régionale;Service
Production régionale;Service
Production régionale;Service
Production régionale;Service
Production régionale;Service
Production régionale;Service
Production régionale;Service
Production régionale;Service
Production régionale;Service
Production régionale;Service
Production régionale;Service
Production régionale;Service
Production régionale;Service
Production régionale;Service
Production régionale;Service
Production régionale;Service
Production régionale;Service
Production régionale;Service
Production régionale;Service
Production régionale;Service
Production régionale;Service
Production régionale;Service
Production régionale;Service
Production régionale;Service
Production régionale;Service
Production régionale;Service
Production régionale;Service
Production régionale;Service
Production régionale;Service
Production régionale;Service
Production régionale;Service
Production régionale;Service
Production régionale;Service
Production régionale;Service
Production régionale;Service
Production régionale;Service
Production régionale;Service
Production régionale;Service
Production régionale;Service
Production régionale;Service
Production régionale;Service
Production régionale;Service
Production régionale;Service
Production régionale;Service
Production régionale;Service
Production régionale;Service
Production régionale;Service
Production régionale;Service
Production régionale;Service
Production régionale;Service
Production régionale;Service
Production régionale;Service
Production régionale;Service
Production régionale;Service
Production régionale;Service
Production régionale;Service
Production régionale;Service
Production régionale;Service
Production régionale;Service
Production régionale;Service
Production régionale;Service
Production régionale;Service
Production régionale;Service
Production régionale;Service
Production régionale;Service
Production régionale;Service
Production régionale;Service
Production régionale;Service
Production régionale;Service
Production régionale;Service
Production régionale;Service
Production régionale;Service
Production régionale;Service
Production régionale;Service
Production régionale;Service
Production régionale;Service
Production régionale;Service
Production régionale;Service
Production régionale;Service
Production régionale;Service
Production régionale;Service
Production régionale;Service
Production régionale;Service
Production régionale;Service
Production régionale;Service
Production régionale;Service
Production régionale;Service
Production régionale;Service
Production régionale;Service
Production régionale;Service
Production régionale;Service
Production régionale;Service
Production régionale;Service
Production régionale;Service
Production régionale;Service
Production régionale;Service
Production régionale;Service
Production régionale;Service
Production régionale;Service
Production régionale;Service
Production régionale;Service
Production régionale;Service
Production régionale;Service
Production régionale;Service
Production régionale;Service
Production régionale;Service
Production régionale;Service
Production régionale;Service
Production régionale;Service
Production régionale;Service
Production régionale;Service
Production régionale;Service
Production régionale;Service
Importation gauloise;Service
Importation gauloise;Service
Importation gauloise;Service
Importation gauloise;Service
Importation gauloise;Service
Production Locale;Service
Production Locale;Service
Production Locale;Service
Production Locale;Service
Production Locale;Service
Production Locale;Service
Production Locale;Service
Production Locale;Service
Production Locale;Service
Production Locale;Service
Production Locale;Service
Production Locale;Service
Production Locale;Service
Production Locale;Service
Production Locale;Service
Production Locale;Service
Production Locale;Service
Importation gauloise;Service
Importation gauloise;Service
Production Locale;Service
Production Locale;Service
Production Locale;Service
Production Locale;Service
Production Locale;Service
Production Locale;Service
Production Locale;Service
Production Locale;Service
Production Locale;Service
Production Locale;Service
Production Locale;Service
Production Locale;Service
Production Locale;Service
Production Locale;Service
Production Locale;Service
Production Locale;Service
Production Locale;Service
Production Locale;Service
Production Locale;Service
Production Locale;Service
Production Locale;Service
Production Locale;Service
Production Locale;Service
Production Locale;Service
Production Locale;Service
Production Locale;Service
Production Locale;Service
Production Locale;Service
Production Locale;Service
Importation gauloise;stockage
Importation gauloise;stockage
Importation gauloise;stockage
Importation gauloise;stockage
Importation gauloise;stockage
Production Locale;stockage
Production Locale;stockage
Production Locale;stockage
Production Locale;stockage
Production Locale;stockage
Production Locale;stockage
Production Locale;stockage
Production Locale;stockage
Production Locale;stockage
Production Locale;stockage
Production Locale;stockage
Production Locale;stockage
Production Locale;stockage
Production Locale;stockage
Production Locale;stockage
Production Locale;stockage
Production Locale;stockage
Production Locale;stockage
Production Locale;stockage
Production Locale;stockage
Production Locale;stockage
Production Locale;stockage
Production Locale;stockage
Production Locale;stockage
Production Locale;stockage
Production Locale;stockage
Production Locale;stockage
Production Locale;stockage
Production Locale;stockage
Production Locale;stockage
Production Locale;stockage
Production Locale;stockage
Production Locale;stockage
Production Locale;stockage
Production Locale;stockage
Production Locale;stockage
Production Locale;stockage
Production Locale;stockage
Production Locale;stockage
Production Locale;stockage
Production Locale;stockage
Production Locale;stockage
Production Locale;stockage
Production Locale;stockage
Production Locale;stockage
Production Locale;stockage
Production Locale;stockage
Production Locale;stockage
Production Locale;stockage
Production Locale;stockage
Production Locale;stockage
Production Locale;stockage
Production Locale;stockage
Production Locale;stockage
Production Locale;stockage
Production Locale;stockage
Production Locale;stockage
Production Locale;stockage
Production Locale;stockage
Production Locale;stockage
Production Locale;stockage
Production Locale;stockage
Production Locale;stockage
Production Locale;stockage
Production Locale;stockage
Production Locale;stockage
Production Locale;stockage
Production Locale;stockage
Production Locale;stockage
Production Locale;stockage
Production Locale;stockage
Production Locale;stockage
Production Locale;stockage
Production Locale;stockage
Production Locale;stockage
Production Locale;stockage
Production Locale;stockage
Production Locale;stockage
Production Locale;stockage
Production Locale;stockage
Production Locale;stockage
Production Locale;stockage
Production Locale;stockage
Production Locale;stockage
Production Locale;stockage
Production Locale;stockage
Production Locale;stockage
Production Locale;stockage
Production Locale;stockage
Production Locale;stockage
Production Locale;stockage
Production Locale;stockage
Production Locale;stockage
Production Locale;stockage
Production Locale;stockage
Production Locale;stockage
Production Locale;stockage
Production Locale;stockage
Production Locale;stockage
Production Locale;stockage
Production Locale;stockage
Production Locale;stockage
Production Locale;stockage
Production Locale;stockage
Production Locale;stockage
Production Locale;stockage
Production Locale;stockage
Production Locale;stockage
Production Locale;stockage
Production Locale;stockage
Production Locale;stockage
Production Locale;stockage
Production Locale;stockage
Production Locale;stockage
Production Locale;stockage
Production Locale;stockage
Production Locale;stockage
Production Locale;stockage
Production Locale;stockage
Production Locale;stockage
Production Locale;stockage
Production Locale;stockage
Production Locale;stockage
Production Locale;stockage
Production Locale;stockage
Production Locale;stockage
Production Locale;stockage
Production Locale;stockage
Production Locale;stockage
Production Locale;stockage
Production Locale;stockage
Production Locale;stockage
Production Locale;stockage
Production Locale;stockage
Production Locale;stockage
Production Locale;stockage
Production Locale;stockage
Production Locale;stockage
Production Locale;stockage
Production Locale;stockage
Production Locale;stockage
Production Locale;stockage
Production Locale;stockage
Production Locale;stockage
Production Locale;stockage
Production Locale;stockage
Production Locale;stockage
Production Locale;stockage
Production Locale;stockage
Production Locale;stockage
Production Locale;stockage
Production Locale;stockage
Production Locale;stockage
Production Locale;stockage
Production Locale;stockage
Production Locale;stockage
Production Locale;stockage
Production Locale;stockage
Production Locale;stockage
Production Locale;stockage
Importation gauloise;stockage
Importation gauloise;stockage
Importation gauloise;stockage
Importation gauloise;stockage
Importation gauloise;stockage
Importation gauloise;stockage
Importation gauloise;stockage
Importation méditerranéenne;stockage
Importation méditerranéenne;stockage
Importation méditerranéenne;stockage
Importation méditerranéenne;stockage
Importation méditerranéenne;stockage
Importation méditerranéenne;stockage
Importation méditerranéenne;stockage
Importation méditerranéenne;stockage
Importation méditerranéenne;stockage
Importation méditerranéenne;stockage
Importation méditerranéenne;stockage
Importation méditerranéenne;stockage
Importation méditerranéenne;stockage
Importation méditerranéenne;stockage
Importation méditerranéenne;stockage
Importation méditerranéenne;stockage
Importation méditerranéenne;stockage
Importation méditerranéenne;stockage
Importation méditerranéenne;stockage
Importation méditerranéenne;stockage
Importation méditerranéenne;stockage
Importation méditerranéenne;stockage
Importation méditerranéenne;stockage
Importation méditerranéenne;stockage
Importation méditerranéenne;stockage
Importation méditerranéenne;stockage
Importation méditerranéenne;stockage
Importation méditerranéenne;stockage
Importation méditerranéenne;stockage
Importation méditerranéenne;stockage
Importation méditerranéenne;stockage
Importation méditerranéenne;stockage
Importation méditerranéenne;stockage
Importation méditerranéenne;stockage
Importation méditerranéenne;stockage
Importation méditerranéenne;stockage
Importation méditerranéenne;stockage
Importation méditerranéenne;stockage
Importation méditerranéenne;stockage
Importation méditerranéenne;stockage
Importation méditerranéenne;stockage
Importation méditerranéenne;stockage
Importation méditerranéenne;stockage
Importation méditerranéenne;stockage
Importation méditerranéenne;stockage
Importation méditerranéenne;stockage
Importation méditerranéenne;stockage
Importation méditerranéenne;stockage
Importation méditerranéenne;stockage
Importation méditerranéenne;stockage
Importation méditerranéenne;stockage
Importation méditerranéenne;stockage
Importation méditerranéenne;stockage
Importation méditerranéenne;stockage
Importation méditerranéenne;stockage
Importation méditerranéenne;stockage
Importation méditerranéenne;stockage
Importation méditerranéenne;stockage
Importation méditerranéenne;stockage
Importation méditerranéenne;stockage
Importation méditerranéenne;stockage
Importation méditerranéenne;stockage
Importation méditerranéenne;stockage
Importation méditerranéenne;stockage
Importation méditerranéenne;stockage
Importation méditerranéenne;stockage
Importation méditerranéenne;stockage
Importation méditerranéenne;stockage
Importation méditerranéenne;stockage
Importation méditerranéenne;stockage
Importation méditerranéenne;stockage
Importation méditerranéenne;stockage
Importation méditerranéenne;stockage
Importation méditerranéenne;stockage
Importation méditerranéenne;stockage
Importation méditerranéenne;stockage
Importation méditerranéenne;stockage
Importation méditerranéenne;stockage
Importation méditerranéenne;stockage
Importation méditerranéenne;stockage
Importation méditerranéenne;stockage
Importation méditerranéenne;stockage
Importation méditerranéenne;stockage
Importation méditerranéenne;stockage
Importation méditerranéenne;stockage
Importation méditerranéenne;stockage
Importation méditerranéenne;stockage
Importation méditerranéenne;stockage
Production Locale;stockage
Production Locale;stockage
Production Locale;stockage
Production Locale;stockage
Production Locale;stockage
Production Locale;stockage
Production Locale;stockage
Production Locale;stockage
Production Locale;stockage
Production Locale;stockage
Production Locale;stockage
Production Locale;stockage
Production Locale;stockage
Production Locale;stockage
Production Locale;stockage
Production Locale;stockage
Production Locale;stockage
Production Locale;stockage
Production Locale;stockage
Production Locale;stockage
Production Locale;stockage
Production Locale;stockage
Production Locale;stockage
Production Locale;stockage
Production Locale;stockage
Production Locale;stockage
Production Locale;stockage
Production Locale;stockage
Production Locale;stockage
Production Locale;stockage
Production Locale;stockage
Production Locale;stockage
Production Locale;stockage
Importation gauloise;stockage
Importation gauloise;stockage
Importation gauloise;stockage
Importation gauloise;stockage
Importation gauloise;stockage
Importation gauloise;stockage
Importation gauloise;stockage
Importation gauloise;stockage
Production Locale;stockage
Production Locale;stockage
Production Locale;stockage
Production Locale;stockage
Production Locale;stockage
Production Locale;stockage
Production Locale;stockage
Production Locale;stockage
Production Locale;stockage
Production Locale;stockage
Production Locale;stockage
Importation gauloise;stockage
Importation gauloise;stockage
Production Locale;stockage
Production Locale;stockage
Production Locale;stockage
Production Locale;stockage
Production Locale;stockage
Production Locale;stockage
Production Locale;stockage
Production Locale;stockage
Production Locale;stockage
Production Locale;stockage
Production Locale;stockage
Production Locale;stockage
Production Locale;stockage
Production Locale;stockage
Production Locale;stockage
Production Locale;stockage
Production Locale;stockage
Production Locale;stockage
Production Locale;stockage
Production Locale;stockage
Production Locale;stockage
Production Locale;stockage
Production Locale;stockage
Production Locale;stockage
Production Locale;stockage
Production Locale;stockage
Production Locale;stockage
Production Locale;stockage
Production Locale;stockage
Production Locale;stockage
Production Locale;stockage
Production Locale;stockage
Production Locale;stockage
Production Locale;stockage
Production Locale;stockage
Production Locale;stockage
Production Locale;stockage
Production Locale;stockage
Production Locale;stockage
Production Locale;stockage
Production Locale;stockage
Production Locale;stockage
Production Locale;stockage
Production Locale;stockage
Production Locale;stockage
Production Locale;stockage
Production Locale;stockage
Production Locale;stockage
Production Locale;stockage
Importation méditerranéenne;préparation
Importation méditerranéenne;préparation
Importation méditerranéenne;préparation
Importation méditerranéenne;préparation
Importation méditerranéenne;préparation
Importation méditerranéenne;préparation
Importation méditerranéenne;préparation
Importation méditerranéenne;préparation
Importation méditerranéenne;préparation
Production régionale;préparation
Production régionale;préparation
Production régionale;préparation
Production régionale;préparation
Production régionale;préparation
Production régionale;préparation
Production régionale;préparation
Production régionale;préparation
Production régionale;préparation
Production régionale;préparation
Production régionale;préparation
Production régionale;préparation
Production régionale;préparation
Production régionale;stockage
Production régionale;stockage
Production régionale;stockage
Production régionale;stockage
Production régionale;stockage
Production régionale;stockage
Production régionale;stockage
Production régionale;stockage
Production régionale;stockage
Production régionale;stockage
Production régionale;stockage
Production régionale;stockage
Production régionale;stockage
Production régionale;stockage
Production régionale;stockage
